Pset 06
…
# Add electoral votes for special districts
extra_ev <- data.frame(
  state = c("Maine CD-1", "Maine CD-2", "Nebraska CD-2", "District of Columbia"),
  electoral_votes = c(1, 1, 1, 3)
)

# Combine datasets
ev <- bind_rows(ev, extra_ev)

# Print cleaned data
print(ev)

# A tibble: 55 × 2
   state          electoral_votes
   <chr>                    <dbl>
 1 State Name                  NA
 2 California                  54
 3 Texas                       40
 4 Florida                     30
 5 New York                    28
 6 Illinois                    19
 7 Pennsylvania                19
 8 Ohio                        17
 9 Georgia                     16
10 North Carolina              16
# ℹ 45 more rows
…
# Add missing districts manually
extra_states <- data.frame(
  state = c("Maine CD-1", "Maine CD-2", "Nebraska CD-2", "District of Columbia"),
  party = c("D", "R", "D", "D")
)

# Combine datasets
res_2020 <- bind_rows(res_2020, extra_states)

# Print cleaned dataset
print(res_2020)

# A tibble: 62 × 2
   state       party
   <chr>       <chr>
 1 Nationwide  N/A  
 2 Alabama     R+   
 3 Alaska      R+   
 4 Arizona     R+   
 5 Arkansas    R+   
 6 California  D+   
 7 Colorado    D+   
 8 Connecticut D+   
 9 Delaware    D+   
10 Florida     R+   
# ℹ 52 more rows
…
  # Handle cases where there are fewer than 5 polls (estimate SD based on similar states)
  mutate(
    sd = ifelse(n < 5, mean(sd, na.rm = TRUE), sd)  # Replace SD with the mean if fewer than 5 polls
  ) %>%
  
  # Arrange by state
  ungroup() %>%
  arrange(state)

# Display the results
print(results)

# A tibble: 49 × 5
   state           avg     sd     n electoral_votes
   <chr>         <dbl>  <dbl> <int>           <dbl>
 1 Alaska      -0.0778 0.0190     5               3
 2 Arizona     -0.0139 0.0239    97              11
 3 Arkansas    -0.15   0.0343     1               6
 4 California   0.254  0.0341    19              54
 5 Colorado     0.132  0.0247     7              10
 6 Connecticut  0.16   0.0343     1               7
 7 Delaware     0.184  0.0343     2               3
 8 Florida     -0.0578 0.0250    47              30
 9 Georgia     -0.0123 0.0187    88              16
10 Illinois     0.167  0.0343     3              19
# ℹ 39 more rows
…
